##PERIODIC:: 0.00218705 0.0021859 0.0021859
0 Sphere 0.000599637 0.00177106 0.00155352 0.00016
1 Sphere 0.00205825 0.00171541 0.00184639 0.00016288
2 Sphere 0.00199271 0.00129964 0.00165141 0.000191218
3 Sphere 6.436e-05 0.00209255 0.00175262 0.000161775
4 Sphere 0.000647572 0.00202606 0.000760495 0.000208355
5 Sphere 0.000790295 0.000565909 0.00169435 0.00022381
6 Sphere 0.0014071 0.00158658 0.00214242 0.000203444
7 Sphere 0.001862 0.00143685 0.00203949 0.000229349
8 Sphere 0.00198645 0.00192533 0.00210216 0.000170551
9 Sphere 0.000540434 0.00169067 0.00102463 0.000183529
10 Sphere 0.000763497 0.00148047 0.00072385 0.000171107
11 Sphere 0.000226667 0.00112309 0.00164744 0.000227134
12 Sphere 0.000973585 0.000831872 0.00133615 0.000230807
13 Sphere 0.000331265 0.00025862 0.000508703 0.000167236
14 Sphere 0.000284149 0.00123816 0.000256394 0.000163419
15 Sphere 0.00171148 2.766e-05 0.00211669 0.000214427
16 Sphere 0.00122642 0.000465018 0.000666896 0.000164324
17 Sphere 0.00149415 0.00181767 0.000435533 0.000185539
18 Sphere 0.000634074 0.000249541 0.00094036 0.000239999
19 Sphere 0.00115807 0.00159477 0.000682491 0.000216808
20 Sphere 0.00169566 0.000309239 0.00066021 0.000164621
21 Sphere 0.00194442 0.00028275 0.0016508 0.000223511
22 Sphere 0.00115342 0.00014977 0.00165918 0.000229533
23 Sphere 0.00207982 0.00105272 0.000859261 0.000163536
24 Sphere 0.000793036 0.00173287 0.00128048 0.000163402
25 Sphere 0.00171187 0.0020984 0.00116005 0.000174117
26 Sphere 0.0019126 0.000644999 0.00137809 0.00023206
27 Sphere 0.00132762 0.0014335 0.00101036 0.000186977
28 Sphere 0.00132681 0.00057704 0.00123595 0.000196707
29 Sphere 0.002185 0.000667885 0.00188448 0.000172827
30 Sphere 0.000863902 0.00159719 0.0016332 0.000164336
31 Sphere 0.000793664 0.00117469 0.000415615 0.000174619
32 Sphere 0.000985364 0.00139286 0.000972404 0.000160159
33 Sphere 0.000800969 0.00203663 0.00023169 0.000228692
34 Sphere 0.00194744 0.00141142 0.000894742 0.000221634
35 Sphere 0.00100588 0.00148766 0.000279576 0.000227496
36 Sphere 0.00140517 0.00200548 0.00148305 0.000221949
37 Sphere 0.00162599 0.000369926 0.00127218 0.000168677
38 Sphere 0.000773721 0.00019193 0.00192921 0.000218876
39 Sphere 0.00154158 0.00123372 0.00128909 0.000218728
40 Sphere 0.000434658 0.000549464 0.000264084 0.000196689
41 Sphere 0.00111557 0.001689 0.00116307 0.000179109
42 Sphere 0.00123152 0.000614479 0.00164353 0.000224171
43 Sphere 0.000739477 0.00119226 0.00146483 0.00021795
44 Sphere 0.00193609 0.0002366 0.00104544 0.000237758
45 Sphere 0.00120089 0.00203491 0.00059332 0.00021289
46 Sphere 0.000366389 7.16536e-05 0.00121004 0.000180325
47 Sphere 0.000445335 0.00147537 0.00133222 0.000203939
48 Sphere 0.0013997 0.00207049 0.0018944 0.000195556
49 Sphere 0.00206335 0.000134172 0.000234493 0.000196758
50 Sphere 0.00206825 0.00151402 0.000291968 0.000168119
51 Sphere 0.00200543 0.000518715 0.000703189 0.000212366
52 Sphere 0.00113598 0.00038244 0.00201486 0.000196983
53 Sphere 0.000555616 0.00105623 0.000653925 0.0001815
54 Sphere 0.00171816 0.000442382 5.69952e-06 0.000208244
55 Sphere 0.000346395 0.00158788 2.045e-05 0.000203357
56 Sphere 0.00024948 0.000559011 0.000656259 0.000177738
57 Sphere 0.0017113 0.00212739 0.000762057 0.00021784
58 Sphere 0.0010646 0.00176341 0.00205474 0.000192111
59 Sphere 5.46673e-05 0.00208749 0.001034 0.000216196
60 Sphere 0.00218444 0.0012982 0.00132735 0.000184897
61 Sphere 0.00208865 0.00164779 0.00120616 0.00019456
62 Sphere 0.000410428 0.00141983 0.000569021 0.000220307
63 Sphere 0.000872824 0.0019785 0.00174342 0.00023281
64 Sphere 0.00152458 0.000409467 0.000387558 0.000172845
65 Sphere 0.00176296 0.00181973 0.00139078 0.000192343
66 Sphere 0.00102547 0.00208985 0.00134076 0.00019284
67 Sphere 0.00185994 0.00203468 0.00173993 0.000229313
68 Sphere 0.00101115 0.00074046 0.00205015 0.000184614
69 Sphere 0.000881576 0.000142272 0.000564596 0.000222079
70 Sphere 0.000536899 5.317e-05 1.55115e-05 0.000168459
71 Sphere 0.00139465 0.00016872 0.000669042 0.000165615
72 Sphere 0.000882539 0.000901277 0.000238374 0.000163231
73 Sphere 0.000522083 0.00145076 0.00175559 0.000227848
74 Sphere 0.000185046 0.000302191 0.00179109 0.000224946
75 Sphere 0.000306278 0.000902316 0.000403685 0.000204553
76 Sphere 0.0020872 0.00179569 0.00153051 0.000162644
77 Sphere 0.00102888 0.000981963 0.00174332 0.000207464
78 Sphere 0.000613678 0.00023135 0.000292818 0.000170481
79 Sphere 0.000503971 0.000820039 0.00147088 0.000220519
80 Sphere 0.00166415 0.00184013 0.0020768 0.000164294
81 Sphere 0.00182243 0.00196771 0.000254434 0.000208152
82 Sphere 0.00161587 0.000844668 0.0011039 0.000219693
83 Sphere 0.000182418 0.00166658 0.000359113 0.000176689
84 Sphere 0.000738725 0.00156123 0.00209979 0.000194542
85 Sphere 0.000183471 0.00160701 0.00158406 0.000183651
86 Sphere 0.000269976 0.00181427 0.000726378 0.000227571
87 Sphere 0.00139078 0.00127029 0.000372588 0.000224834
88 Sphere 0.00164495 0.00166342 0.00174526 0.000200842
89 Sphere 0.00176622 0.00176835 0.00100626 0.000195181
90 Sphere 0.000843806 0.000978352 0.000926563 0.000223802
91 Sphere 0.00170848 0.00114003 0.0001226 0.000199959
92 Sphere 0.00183637 0.000646147 0.00180104 0.000185485
93 Sphere 0.000515251 0.00218037 0.00159693 0.000203522
94 Sphere 0.00114688 0.00125274 0.00211049 0.000221557
95 Sphere 0.000358785 0.00119079 0.00207466 0.000215674
96 Sphere 0.00117961 0.00137894 0.00167894 0.000222486
97 Sphere 0.000139939 0.00199734 0.00012071 0.000234042
98 Sphere 0.000507984 0.00191263 1.01182e-05 0.00016021
99 Sphere 0.00135002 0.000805133 0.00199766 0.000164604
100 Sphere 0.000362962 0.00186509 0.0018438 0.000224967
101 Sphere 0.00175121 0.000999352 0.00192783 0.000197236
102 Sphere 0.00150576 0.000723095 0.000669841 0.000202415
103 Sphere 0.00140382 0.00217103 0.00025203 0.000184644
104 Sphere 0.00066246 0.000620366 0.00115166 0.000189406
105 Sphere 0.00209303 0.00087834 0.000287596 0.000213301
106 Sphere 0.000852804 0.00023951 0.00138215 0.00018676
107 Sphere 0.00158863 0.000755594 0.00157881 0.000165999
108 Sphere 0.000480714 0.00038274 0.00144117 0.000216593
109 Sphere 0.00101733 0.00206264 0.000919785 0.000163092
110 Sphere 0.00112686 0.00122494 0.0012758 0.000191798
111 Sphere 0.00140904 0.000236787 1.293e-05 0.000163085
112 Sphere 0.00150955 0.000322525 0.00162062 0.000168094
113 Sphere 0.00216874 0.000732479 0.00102888 0.000210994
114 Sphere 0.00167563 9.08662e-05 0.00144841 0.000161547
115 Sphere 0.00199317 0.00216368 0.00137193 0.000183373
116 Sphere 0.00209905 0.00177619 0.000874466 0.000162165
117 Sphere 0.00180411 0.00124881 0.000490371 0.000187826
118 Sphere 0.0001737 0.000311923 0.00088377 0.000165595
119 Sphere 0.00215807 0.00106312 0.00200792 0.0001952
120 Sphere 0.00146029 0.00182223 0.000797972 0.000179017
121 Sphere 0.00213741 0.00203943 0.000524504 0.000213448
122 Sphere 0.00165772 0.000504386 0.000925898 0.000167925
123 Sphere 0.000232135 0.000787157 0.00217543 0.000219792
124 Sphere 0.000518141 0.00195915 0.0013 0.000166836
125 Sphere 3.171e-05 0.00082929 0.000645895 0.000169928
126 Sphere 0.000646242 0.00132692 0.00102854 0.000190239
127 Sphere 0.00143514 0.00182064 0.00114277 0.000167383
128 Sphere 0.000535197 0.000518194 0.00202494 0.000196568
129 Sphere 7.423e-05 0.00142634 0.00189811 0.000195209
130 Sphere 0.00173344 0.00105627 0.0015702 0.000165913
131 Sphere 0.00170413 0.00011485 0.000388353 0.000170027
132 Sphere 0.00136447 0.00035748 0.000955155 0.000162134
133 Sphere 9.43254e-06 0.000943188 0.00134069 0.000166645
134 Sphere 0.00105319 0.000218668 0.000920332 0.000181164
135 Sphere 0.00165856 0.000759046 0.000281908 0.000216309
136 Sphere 0.00109237 0.00217906 0.00212827 0.000206447
137 Sphere 4.76937e-05 0.000492301 0.00032634 0.000200444
138 Sphere 0.00135153 0.000577819 8.478e-05 0.000191128
139 Sphere 0.000125635 0.000652537 0.00153605 0.000199211
140 Sphere 0.0021688 0.00157019 0.000619049 0.000165798
141 Sphere 0.00151906 0.000526489 0.00188852 0.000165298
142 Sphere 0.00109842 0.00177467 0.00149186 0.000162434
143 Sphere 0.00123691 0.000837064 0.000938225 0.000194699
144 Sphere 0.0019473 0.000750528 0.0021327 0.000181032
145 Sphere 0.000566896 0.00105746 0.000184286 0.000170862
146 Sphere 0.000911397 0.00024819 0.00014105 0.000164589
147 Sphere 0.00218307 0.00022278 0.000560996 0.000161555
148 Sphere 0.00118799 0.000247401 0.00127988 0.000164116
149 Sphere 0.00132474 0.00115948 0.000761152 0.000183557
150 Sphere 0.000968243 0.000620122 0.000819155 0.000170844
151 Sphere 0.00020636 0.00143166 0.000971454 0.000231846
152 Sphere 0.00120711 0.00028477 0.000308549 0.000177651
153 Sphere 7.302e-05 0.000289545 0.00135135 0.000211962
154 Sphere 0.00118579 0.00186362 0.00022057 0.000194086
155 Sphere 0.00141471 0.00159854 0.00142143 0.000189975
156 Sphere 0.000338255 0.000729007 0.00181523 0.000160475
157 Sphere 0.000507839 0.00176505 0.000414384 0.000168082
158 Sphere 0.00183042 0.00146839 0.0013817 0.000166395
159 Sphere 0.00015287 0.00204933 0.00142076 0.000184973
160 Sphere 0.00085405 0.0012822 0.00186616 0.000161786
161 Sphere 0.000991706 0.00048915 0.00112898 0.000166692
162 Sphere 0.00042893 0.00211504 0.00040911 0.00019104
163 Sphere 0.00167476 0.00112876 0.000835783 0.000176637
164 Sphere 0.00024582 0.00102697 0.000857501 0.000190976
165 Sphere 0.00030882 0.000608963 0.00116615 0.000165725
166 Sphere 0.00128401 0.00174761 0.0017667 0.000170894
167 Sphere 0.00141723 0.00101843 0.00173169 0.000183313
168 Sphere 0.000939577 0.000538157 0.00046849 0.000191055
169 Sphere 0.00103174 0.000880126 0.00058459 0.000175169
170 Sphere 0.000703116 0.000797081 0.00048733 0.000161358
171 Sphere 0.00212172 0.000423748 0.00214512 0.000190136
172 Sphere 0.00186705 0.000439017 0.000354536 0.000172633
173 Sphere 0.000232689 2.01e-05 0.000718224 0.000165272
174 Sphere 3.397e-05 0.00120092 0.00053981 0.000216889
175 Sphere 0.00156518 0.00146483 0.00070733 0.000200353
176 Sphere 0.00209872 6.89315e-05 0.00202025 0.000187255
177 Sphere 0.00186133 0.000891498 0.000622093 0.000194543
178 Sphere 0.000995278 0.00124028 0.000681147 0.000166146
179 Sphere 0.00134998 0.0021805 0.00105106 0.000213757
180 Sphere 0.000612633 0.00141862 0.000230204 0.000175623
181 Sphere 0.000609882 0.0010207 0.00180926 0.000188152
182 Sphere 0.00151031 0.00126682 0.00197734 0.000166763
183 Sphere 0.00184127 0.00175023 0.000609334 0.000209644
184 Sphere 0.00206443 0.00122138 0.000134654 0.000161764
185 Sphere 0.001698 0.00154389 0.000242902 0.00020715
186 Sphere 0.00156289 0.00132211 0.00165788 0.000162297
187 Sphere 0.00023207 0.00022786 0.000100458 0.000193332
188 Sphere 0.00192407 0.00110047 0.0011631 0.000179906
189 Sphere 0.000519027 0.000734021 0.000824939 0.000185355
190 Sphere 0.000809334 0.00103626 0.00211756 0.000180347
191 Sphere 0.00204902 0.000922962 0.00166456 0.000190052
192 Sphere 0.000754013 0.00209065 0.00111085 0.000163792
193 Sphere 0.00216757 0.00164949 0.0021797 0.000168408
194 Sphere 0.00125985 0.000667365 0.000410959 0.000160357
195 Sphere 0.000601301 0.000456401 0.000582771 0.000175646
196 Sphere 0.00135716 0.000913773 0.00139963 0.000167641
197 Sphere 0.000835055 0.00175988 0.000527183 0.000178543
198 Sphere 0.000247184 0.00177345 0.00121162 0.000174132
199 Sphere 0.000791653 0.000580972 0.00012082 0.000189905
200 Sphere 0.0012343 0.000933571 0.0001775 0.000195442
201 Sphere 0.000876231 0.00175336 0.00090778 0.000177759
202 Sphere 0.000316944 0.0011074 0.00123149 0.000198963
