<?xml version="1.0" encoding="UTF-8" standalone="no"?>
<!-- Created with Inkscape (http://www.inkscape.org/) -->

<svg
   xmlns:osb="http://www.openswatchbook.org/uri/2009/osb"
   xmlns:dc="http://purl.org/dc/elements/1.1/"
   xmlns:cc="http://creativecommons.org/ns#"
   xmlns:rdf="http://www.w3.org/1999/02/22-rdf-syntax-ns#"
   xmlns:svg="http://www.w3.org/2000/svg"
   xmlns="http://www.w3.org/2000/svg"
   xmlns:xlink="http://www.w3.org/1999/xlink"
   xmlns:sodipodi="http://sodipodi.sourceforge.net/DTD/sodipodi-0.dtd"
   xmlns:inkscape="http://www.inkscape.org/namespaces/inkscape"
   width="165.00691mm"
   height="116.22315mm"
   viewBox="0 0 584.67031 411.81431"
   id="svg2"
   version="1.1"
   inkscape:version="0.92.5 (0.92.5+68)"
   sodipodi:docname="deformOutput.svg"
   inkscape:export-filename="/home/3S-LAB/ostamati/Documents/softwares/spam/docs/source/images/tutorial/scripts/defResult.png"
   inkscape:export-xdpi="105.91772"
   inkscape:export-ydpi="105.91772">
  <defs
     id="defs4">
    <marker
       inkscape:stockid="Arrow2Mend"
       orient="auto"
       refY="0"
       refX="0"
       id="marker3388"
       style="overflow:visible"
       inkscape:isstock="true">
      <path
         inkscape:connector-curvature="0"
         id="path3386"
         style="fill:#ffffff;fill-opacity:1;fill-rule:evenodd;stroke:#ffffff;stroke-width:0.625;stroke-linejoin:round;stroke-opacity:1"
         d="M 8.7185878,4.0337352 -2.2072895,0.01601326 8.7185884,-4.0017078 c -1.7454984,2.3720609 -1.7354408,5.6174519 -6e-7,8.035443 z"
         transform="scale(-0.6)" />
    </marker>
    <marker
       inkscape:stockid="Arrow2Mend"
       orient="auto"
       refY="0"
       refX="0"
       id="marker9047"
       style="overflow:visible"
       inkscape:isstock="true">
      <path
         id="path9045"
         style="fill:#000000;fill-opacity:1;fill-rule:evenodd;stroke:#000000;stroke-width:0.625;stroke-linejoin:round;stroke-opacity:1"
         d="M 8.7185878,4.0337352 -2.2072895,0.01601326 8.7185884,-4.0017078 c -1.7454984,2.3720609 -1.7354408,5.6174519 -6e-7,8.035443 z"
         transform="scale(-0.6)"
         inkscape:connector-curvature="0" />
    </marker>
    <marker
       inkscape:isstock="true"
       style="overflow:visible"
       id="marker7789"
       refX="0"
       refY="0"
       orient="auto"
       inkscape:stockid="Arrow2Mend">
      <path
         transform="scale(-0.6)"
         d="M 8.7185878,4.0337352 -2.2072895,0.01601326 8.7185884,-4.0017078 c -1.7454984,2.3720609 -1.7354408,5.6174519 -6e-7,8.035443 z"
         style="fill:#000000;fill-opacity:1;fill-rule:evenodd;stroke:#000000;stroke-width:0.625;stroke-linejoin:round;stroke-opacity:1"
         id="path7787"
         inkscape:connector-curvature="0" />
    </marker>
    <marker
       inkscape:isstock="true"
       style="overflow:visible"
       id="marker7563"
       refX="0"
       refY="0"
       orient="auto"
       inkscape:stockid="Arrow2Mstart">
      <path
         transform="scale(0.6)"
         d="M 8.7185878,4.0337352 -2.2072895,0.01601326 8.7185884,-4.0017078 c -1.7454984,2.3720609 -1.7354408,5.6174519 -6e-7,8.035443 z"
         style="fill:#000000;fill-opacity:1;fill-rule:evenodd;stroke:#000000;stroke-width:0.625;stroke-linejoin:round;stroke-opacity:1"
         id="path7561"
         inkscape:connector-curvature="0" />
    </marker>
    <marker
       inkscape:stockid="Arrow2Lend"
       orient="auto"
       refY="0"
       refX="0"
       id="marker2623"
       style="overflow:visible"
       inkscape:isstock="true">
      <path
         id="path1921"
         style="fill:#000000;fill-opacity:1;fill-rule:evenodd;stroke:#000000;stroke-width:0.625;stroke-linejoin:round;stroke-opacity:1"
         d="M 8.7185878,4.0337352 -2.2072895,0.01601326 8.7185884,-4.0017078 c -1.7454984,2.3720609 -1.7354408,5.6174519 -6e-7,8.035443 z"
         transform="matrix(-1.1,0,0,-1.1,-1.1,0)"
         inkscape:connector-curvature="0" />
    </marker>
    <marker
       inkscape:stockid="Arrow2Lstart"
       orient="auto"
       refY="0"
       refX="0"
       id="Arrow2Lstart"
       style="overflow:visible"
       inkscape:isstock="true">
      <path
         id="path1918"
         style="fill:#000000;fill-opacity:1;fill-rule:evenodd;stroke:#000000;stroke-width:0.625;stroke-linejoin:round;stroke-opacity:1"
         d="M 8.7185878,4.0337352 -2.2072895,0.01601326 8.7185884,-4.0017078 c -1.7454984,2.3720609 -1.7354408,5.6174519 -6e-7,8.035443 z"
         transform="matrix(1.1,0,0,1.1,1.1,0)"
         inkscape:connector-curvature="0" />
    </marker>
    <marker
       inkscape:stockid="Arrow1Mend"
       orient="auto"
       refY="0"
       refX="0"
       id="Arrow1Mend"
       style="overflow:visible"
       inkscape:isstock="true">
      <path
         id="path5680"
         d="M 0,0 5,-5 -12.5,0 5,5 Z"
         style="fill:#009000;fill-opacity:1;fill-rule:evenodd;stroke:#009000;stroke-width:1.00000003pt;stroke-opacity:1"
         transform="matrix(-0.4,0,0,-0.4,-4,0)"
         inkscape:connector-curvature="0" />
    </marker>
    <marker
       inkscape:stockid="Arrow2Lend"
       orient="auto"
       refY="0"
       refX="0"
       id="Arrow2Lend"
       style="overflow:visible"
       inkscape:isstock="true">
      <path
         id="path5692"
         style="fill:#000000;fill-opacity:1;fill-rule:evenodd;stroke:#000000;stroke-width:0.625;stroke-linejoin:round;stroke-opacity:1"
         d="M 8.7185878,4.0337352 -2.2072895,0.01601326 8.7185884,-4.0017078 c -1.7454984,2.3720609 -1.7354408,5.6174519 -6e-7,8.035443 z"
         transform="matrix(-1.1,0,0,-1.1,-1.1,0)"
         inkscape:connector-curvature="0" />
    </marker>
    <linearGradient
       id="linearGradient5632"
       osb:paint="solid">
      <stop
         style="stop-color:#000000;stop-opacity:1;"
         offset="0"
         id="stop5634" />
    </linearGradient>
    <linearGradient
       id="linearGradient4182"
       osb:paint="solid">
      <stop
         style="stop-color:#000000;stop-opacity:1;"
         offset="0"
         id="stop4184" />
    </linearGradient>
    <inkscape:perspective
       sodipodi:type="inkscape:persp3d"
       inkscape:vp_x="182.85719 : 786.18109 : 1"
       inkscape:vp_y="0 : 999.99994 : 0"
       inkscape:vp_z="609.8089 : 717.60965 : 1"
       inkscape:persp3d-origin="372.04732 : 350.7874 : 1"
       id="perspective3336" />
    <marker
       inkscape:stockid="Arrow1Mend"
       orient="auto"
       refY="0"
       refX="0"
       id="Arrow1Mend-6"
       style="overflow:visible"
       inkscape:isstock="true">
      <path
         inkscape:connector-curvature="0"
         id="path5680-7"
         d="M 0,0 5,-5 -12.5,0 5,5 Z"
         style="fill:#000000;fill-opacity:1;fill-rule:evenodd;stroke:#000000;stroke-width:1.00000003pt;stroke-opacity:1"
         transform="matrix(-0.4,0,0,-0.4,-4,0)" />
    </marker>
    <marker
       inkscape:stockid="Arrow1Mend"
       orient="auto"
       refY="0"
       refX="0"
       id="Arrow1Mend-3"
       style="overflow:visible"
       inkscape:isstock="true">
      <path
         inkscape:connector-curvature="0"
         id="path5680-5"
         d="M 0,0 5,-5 -12.5,0 5,5 Z"
         style="fill:#f00000;fill-opacity:1;fill-rule:evenodd;stroke:#f00000;stroke-width:1.00000003pt;stroke-opacity:1"
         transform="matrix(-0.4,0,0,-0.4,-4,0)" />
    </marker>
    <marker
       inkscape:stockid="Arrow1Mend"
       orient="auto"
       refY="0"
       refX="0"
       id="Arrow1Mend-3-2"
       style="overflow:visible"
       inkscape:isstock="true">
      <path
         inkscape:connector-curvature="0"
         id="path5680-5-9"
         d="M 0,0 5,-5 -12.5,0 5,5 Z"
         style="fill:#f00000;fill-opacity:1;fill-rule:evenodd;stroke:#f00000;stroke-width:1.00000003pt;stroke-opacity:1"
         transform="matrix(-0.4,0,0,-0.4,-4,0)" />
    </marker>
    <marker
       inkscape:stockid="Arrow1Mend"
       orient="auto"
       refY="0"
       refX="0"
       id="Arrow1Mend-1"
       style="overflow:visible"
       inkscape:isstock="true">
      <path
         inkscape:connector-curvature="0"
         id="path5680-2"
         d="M 0,0 5,-5 -12.5,0 5,5 Z"
         style="fill:#009000;fill-opacity:1;fill-rule:evenodd;stroke:#009000;stroke-width:1.00000003pt;stroke-opacity:1"
         transform="matrix(-0.4,0,0,-0.4,-4,0)" />
    </marker>
    <marker
       inkscape:stockid="Arrow1Mend"
       orient="auto"
       refY="0"
       refX="0"
       id="Arrow1Mend-3-9"
       style="overflow:visible"
       inkscape:isstock="true">
      <path
         inkscape:connector-curvature="0"
         id="path5680-5-3"
         d="M 0,0 5,-5 -12.5,0 5,5 Z"
         style="fill:#f00000;fill-opacity:1;fill-rule:evenodd;stroke:#f00000;stroke-width:1.00000003pt;stroke-opacity:1"
         transform="matrix(-0.4,0,0,-0.4,-4,0)" />
    </marker>
    <marker
       inkscape:stockid="Arrow1Mend"
       orient="auto"
       refY="0"
       refX="0"
       id="Arrow1Mend-60"
       style="overflow:visible"
       inkscape:isstock="true">
      <path
         inkscape:connector-curvature="0"
         id="path5680-6"
         d="M 0,0 5,-5 -12.5,0 5,5 Z"
         style="fill:#009000;fill-opacity:1;fill-rule:evenodd;stroke:#009000;stroke-width:1.00000003pt;stroke-opacity:1"
         transform="matrix(-0.4,0,0,-0.4,-4,0)" />
    </marker>
    <marker
       inkscape:stockid="Arrow1Mend"
       orient="auto"
       refY="0"
       refX="0"
       id="Arrow1Mend-3-1"
       style="overflow:visible"
       inkscape:isstock="true">
      <path
         inkscape:connector-curvature="0"
         id="path5680-5-8"
         d="M 0,0 5,-5 -12.5,0 5,5 Z"
         style="fill:#f00000;fill-opacity:1;fill-rule:evenodd;stroke:#f00000;stroke-width:1.00000003pt;stroke-opacity:1"
         transform="matrix(-0.4,0,0,-0.4,-4,0)" />
    </marker>
    <marker
       inkscape:stockid="Arrow1Mend"
       orient="auto"
       refY="0"
       refX="0"
       id="Arrow1Mend-7"
       style="overflow:visible"
       inkscape:isstock="true">
      <path
         inkscape:connector-curvature="0"
         id="path5680-9"
         d="M 0,0 5,-5 -12.5,0 5,5 Z"
         style="fill:#009000;fill-opacity:1;fill-rule:evenodd;stroke:#009000;stroke-width:1.00000003pt;stroke-opacity:1"
         transform="matrix(-0.4,0,0,-0.4,-4,0)" />
    </marker>
    <marker
       inkscape:stockid="Arrow1Mend"
       orient="auto"
       refY="0"
       refX="0"
       id="Arrow1Mend-3-3"
       style="overflow:visible"
       inkscape:isstock="true">
      <path
         inkscape:connector-curvature="0"
         id="path5680-5-7"
         d="M 0,0 5,-5 -12.5,0 5,5 Z"
         style="fill:#f00000;fill-opacity:1;fill-rule:evenodd;stroke:#f00000;stroke-width:1.00000003pt;stroke-opacity:1"
         transform="matrix(-0.4,0,0,-0.4,-4,0)" />
    </marker>
    <marker
       inkscape:stockid="Arrow1Mend"
       orient="auto"
       refY="0"
       refX="0"
       id="Arrow1Mend-5"
       style="overflow:visible"
       inkscape:isstock="true">
      <path
         inkscape:connector-curvature="0"
         id="path5680-92"
         d="M 0,0 5,-5 -12.5,0 5,5 Z"
         style="fill:#009000;fill-opacity:1;fill-rule:evenodd;stroke:#009000;stroke-width:1.00000003pt;stroke-opacity:1"
         transform="matrix(-0.4,0,0,-0.4,-4,0)" />
    </marker>
    <marker
       inkscape:stockid="Arrow1Mend"
       orient="auto"
       refY="0"
       refX="0"
       id="Arrow1Mend-3-7"
       style="overflow:visible"
       inkscape:isstock="true">
      <path
         inkscape:connector-curvature="0"
         id="path5680-5-36"
         d="M 0,0 5,-5 -12.5,0 5,5 Z"
         style="fill:#f00000;fill-opacity:1;fill-rule:evenodd;stroke:#f00000;stroke-width:1.00000003pt;stroke-opacity:1"
         transform="matrix(-0.4,0,0,-0.4,-4,0)" />
    </marker>
    <marker
       inkscape:stockid="Arrow1Mend"
       orient="auto"
       refY="0"
       refX="0"
       id="Arrow1Mend-12"
       style="overflow:visible"
       inkscape:isstock="true">
      <path
         inkscape:connector-curvature="0"
         id="path5680-93"
         d="M 0,0 5,-5 -12.5,0 5,5 Z"
         style="fill:#009000;fill-opacity:1;fill-rule:evenodd;stroke:#009000;stroke-width:1.00000003pt;stroke-opacity:1"
         transform="matrix(-0.4,0,0,-0.4,-4,0)" />
    </marker>
    <marker
       inkscape:stockid="Arrow1Mend"
       orient="auto"
       refY="0"
       refX="0"
       id="Arrow1Mend-3-78"
       style="overflow:visible"
       inkscape:isstock="true">
      <path
         inkscape:connector-curvature="0"
         id="path5680-5-4"
         d="M 0,0 5,-5 -12.5,0 5,5 Z"
         style="fill:#f00000;fill-opacity:1;fill-rule:evenodd;stroke:#f00000;stroke-width:1.00000003pt;stroke-opacity:1"
         transform="matrix(-0.4,0,0,-0.4,-4,0)" />
    </marker>
    <marker
       inkscape:stockid="Arrow1Mend"
       orient="auto"
       refY="0"
       refX="0"
       id="Arrow1Mend-50"
       style="overflow:visible"
       inkscape:isstock="true">
      <path
         inkscape:connector-curvature="0"
         id="path5680-3"
         d="M 0,0 5,-5 -12.5,0 5,5 Z"
         style="fill:#009000;fill-opacity:1;fill-rule:evenodd;stroke:#009000;stroke-width:1.00000003pt;stroke-opacity:1"
         transform="matrix(-0.4,0,0,-0.4,-4,0)" />
    </marker>
    <marker
       inkscape:stockid="Arrow1Mend"
       orient="auto"
       refY="0"
       refX="0"
       id="Arrow1Mend-3-32"
       style="overflow:visible"
       inkscape:isstock="true">
      <path
         inkscape:connector-curvature="0"
         id="path5680-5-0"
         d="M 0,0 5,-5 -12.5,0 5,5 Z"
         style="fill:#f00000;fill-opacity:1;fill-rule:evenodd;stroke:#f00000;stroke-width:1.00000003pt;stroke-opacity:1"
         transform="matrix(-0.4,0,0,-0.4,-4,0)" />
    </marker>
    <marker
       inkscape:stockid="Arrow1Mend"
       orient="auto"
       refY="0"
       refX="0"
       id="Arrow1Mend-61"
       style="overflow:visible"
       inkscape:isstock="true">
      <path
         inkscape:connector-curvature="0"
         id="path5680-55"
         d="M 0,0 5,-5 -12.5,0 5,5 Z"
         style="fill:#009000;fill-opacity:1;fill-rule:evenodd;stroke:#009000;stroke-width:1.00000003pt;stroke-opacity:1"
         transform="matrix(-0.4,0,0,-0.4,-4,0)" />
    </marker>
    <marker
       inkscape:stockid="Arrow1Mend"
       orient="auto"
       refY="0"
       refX="0"
       id="Arrow1Mend-3-6"
       style="overflow:visible"
       inkscape:isstock="true">
      <path
         inkscape:connector-curvature="0"
         id="path5680-5-5"
         d="M 0,0 5,-5 -12.5,0 5,5 Z"
         style="fill:#f00000;fill-opacity:1;fill-rule:evenodd;stroke:#f00000;stroke-width:1.00000003pt;stroke-opacity:1"
         transform="matrix(-0.4,0,0,-0.4,-4,0)" />
    </marker>
    <marker
       inkscape:stockid="Arrow1Mend"
       orient="auto"
       refY="0"
       refX="0"
       id="Arrow1Mend-69"
       style="overflow:visible"
       inkscape:isstock="true">
      <path
         inkscape:connector-curvature="0"
         id="path5680-37"
         d="M 0,0 5,-5 -12.5,0 5,5 Z"
         style="fill:#009000;fill-opacity:1;fill-rule:evenodd;stroke:#009000;stroke-width:1.00000003pt;stroke-opacity:1"
         transform="matrix(-0.4,0,0,-0.4,-4,0)" />
    </marker>
    <marker
       inkscape:stockid="Arrow1Mend"
       orient="auto"
       refY="0"
       refX="0"
       id="Arrow1Mend-3-3-4"
       style="overflow:visible"
       inkscape:isstock="true">
      <path
         inkscape:connector-curvature="0"
         id="path5680-5-7-7"
         d="M 0,0 5,-5 -12.5,0 5,5 Z"
         style="fill:#0000b4;fill-opacity:1;fill-rule:evenodd;stroke:#0000b4;stroke-width:1.00000003pt;stroke-opacity:1"
         transform="matrix(-0.4,0,0,-0.4,-4,0)" />
    </marker>
    <marker
       inkscape:stockid="Arrow1Mend"
       orient="auto"
       refY="0"
       refX="0"
       id="Arrow1Mend-3-3-4-4"
       style="overflow:visible"
       inkscape:isstock="true">
      <path
         inkscape:connector-curvature="0"
         id="path5680-5-7-7-3"
         d="M 0,0 5,-5 -12.5,0 5,5 Z"
         style="fill:#0000b4;fill-opacity:1;fill-rule:evenodd;stroke:#0000b4;stroke-width:1.00000003pt;stroke-opacity:1"
         transform="matrix(-0.4,0,0,-0.4,-4,0)" />
    </marker>
    <marker
       inkscape:stockid="Arrow1Mend"
       orient="auto"
       refY="0"
       refX="0"
       id="Arrow1Mend-3-3-4-4-7"
       style="overflow:visible"
       inkscape:isstock="true">
      <path
         inkscape:connector-curvature="0"
         id="path5680-5-7-7-3-8"
         d="M 0,0 5,-5 -12.5,0 5,5 Z"
         style="fill:#0000b4;fill-opacity:1;fill-rule:evenodd;stroke:#0000b4;stroke-width:1.00000003pt;stroke-opacity:1"
         transform="matrix(-0.4,0,0,-0.4,-4,0)" />
    </marker>
    <marker
       inkscape:stockid="Arrow1Mend"
       orient="auto"
       refY="0"
       refX="0"
       id="Arrow1Mend-3-3-4-4-8"
       style="overflow:visible"
       inkscape:isstock="true">
      <path
         inkscape:connector-curvature="0"
         id="path5680-5-7-7-3-84"
         d="M 0,0 5,-5 -12.5,0 5,5 Z"
         style="fill:#0000b4;fill-opacity:1;fill-rule:evenodd;stroke:#0000b4;stroke-width:1.00000003pt;stroke-opacity:1"
         transform="matrix(-0.4,0,0,-0.4,-4,0)" />
    </marker>
    <marker
       inkscape:stockid="Arrow1Mend"
       orient="auto"
       refY="0"
       refX="0"
       id="Arrow1Mend-3-3-4-4-1"
       style="overflow:visible"
       inkscape:isstock="true">
      <path
         inkscape:connector-curvature="0"
         id="path5680-5-7-7-3-4"
         d="M 0,0 5,-5 -12.5,0 5,5 Z"
         style="fill:#0000b4;fill-opacity:1;fill-rule:evenodd;stroke:#0000b4;stroke-width:1.00000003pt;stroke-opacity:1"
         transform="matrix(-0.4,0,0,-0.4,-4,0)" />
    </marker>
    <marker
       inkscape:stockid="Arrow1Mend"
       orient="auto"
       refY="0"
       refX="0"
       id="Arrow1Mend-3-3-4-4-2"
       style="overflow:visible"
       inkscape:isstock="true">
      <path
         inkscape:connector-curvature="0"
         id="path5680-5-7-7-3-0"
         d="M 0,0 5,-5 -12.5,0 5,5 Z"
         style="fill:#0000b4;fill-opacity:1;fill-rule:evenodd;stroke:#0000b4;stroke-width:1.00000003pt;stroke-opacity:1"
         transform="matrix(-0.4,0,0,-0.4,-4,0)" />
    </marker>
    <marker
       inkscape:stockid="Arrow1Mend"
       orient="auto"
       refY="0"
       refX="0"
       id="Arrow1Mend-3-3-4-4-9"
       style="overflow:visible"
       inkscape:isstock="true">
      <path
         inkscape:connector-curvature="0"
         id="path5680-5-7-7-3-2"
         d="M 0,0 5,-5 -12.5,0 5,5 Z"
         style="fill:#0000b4;fill-opacity:1;fill-rule:evenodd;stroke:#0000b4;stroke-width:1.00000003pt;stroke-opacity:1"
         transform="matrix(-0.4,0,0,-0.4,-4,0)" />
    </marker>
    <marker
       inkscape:stockid="Arrow1Mend"
       orient="auto"
       refY="0"
       refX="0"
       id="Arrow1Mend-3-3-4-4-4"
       style="overflow:visible"
       inkscape:isstock="true">
      <path
         inkscape:connector-curvature="0"
         id="path5680-5-7-7-3-9"
         d="M 0,0 5,-5 -12.5,0 5,5 Z"
         style="fill:#0000b4;fill-opacity:1;fill-rule:evenodd;stroke:#0000b4;stroke-width:1.00000003pt;stroke-opacity:1"
         transform="matrix(-0.4,0,0,-0.4,-4,0)" />
    </marker>
    <marker
       inkscape:stockid="Arrow1Mend"
       orient="auto"
       refY="0"
       refX="0"
       id="Arrow1Mend-3-6-8"
       style="overflow:visible"
       inkscape:isstock="true">
      <path
         inkscape:connector-curvature="0"
         id="path5680-5-5-8"
         d="M 0,0 5,-5 -12.5,0 5,5 Z"
         style="fill:#f00000;fill-opacity:1;fill-rule:evenodd;stroke:#f00000;stroke-width:1.00000003pt;stroke-opacity:1"
         transform="matrix(-0.4,0,0,-0.4,-4,0)" />
    </marker>
    <marker
       inkscape:stockid="Arrow1Lend"
       orient="auto"
       refY="0"
       refX="0"
       id="marker1149"
       style="overflow:visible"
       inkscape:isstock="true">
      <path
         inkscape:connector-curvature="0"
         id="path1147"
         d="M 0,0 5,-5 -12.5,0 5,5 Z"
         style="fill:#000000;fill-opacity:1;fill-rule:evenodd;stroke:#000000;stroke-width:1.00000003pt;stroke-opacity:1"
         transform="matrix(-0.8,0,0,-0.8,-10,0)" />
    </marker>
    <clipPath
       clipPathUnits="userSpaceOnUse"
       id="clipPath1621">
      <path
         style="fill:none;stroke:#000000;stroke-width:0.97436756px;stroke-linecap:butt;stroke-linejoin:miter;stroke-opacity:1"
         d="m 1062.8157,575.08396 v 10.95219 h 141.0707 v -10.93731 z"
         id="path1623"
         inkscape:connector-curvature="0" />
    </clipPath>
  </defs>
  <sodipodi:namedview
     id="base"
     pagecolor="#ffffff"
     bordercolor="#666666"
     borderopacity="1.0"
     inkscape:pageopacity="0.0"
     inkscape:pageshadow="2"
     inkscape:zoom="1.2274727"
     inkscape:cx="239.81348"
     inkscape:cy="317.28069"
     inkscape:document-units="px"
     inkscape:current-layer="g1613"
     showgrid="true"
     inkscape:snap-bbox="true"
     inkscape:bbox-nodes="true"
     inkscape:snap-nodes="true"
     inkscape:snap-bbox-edge-midpoints="true"
     inkscape:bbox-paths="true"
     inkscape:snap-bbox-midpoints="true"
     inkscape:object-paths="true"
     inkscape:snap-intersection-paths="true"
     inkscape:object-nodes="true"
     inkscape:snap-smooth-nodes="true"
     inkscape:snap-midpoints="true"
     inkscape:snap-others="true"
     inkscape:snap-object-midpoints="true"
     inkscape:snap-global="false"
     inkscape:window-width="1861"
     inkscape:window-height="1056"
     inkscape:window-x="59"
     inkscape:window-y="24"
     inkscape:window-maximized="1"
     inkscape:pagecheckerboard="false" />
  <metadata
     id="metadata7">
    <rdf:RDF>
      <cc:Work
         rdf:about="">
        <dc:format>image/svg+xml</dc:format>
        <dc:type
           rdf:resource="http://purl.org/dc/dcmitype/StillImage" />
        <dc:title />
      </cc:Work>
    </rdf:RDF>
  </metadata>
  <g
     inkscape:label="Layer 1"
     inkscape:groupmode="layer"
     id="layer1"
     transform="translate(-284.65284,-241.13994)">
    <flowRoot
       xml:space="preserve"
       id="flowRoot16146"
       style="font-style:normal;font-weight:normal;line-height:0.01%;font-family:sans-serif;letter-spacing:0px;word-spacing:0px;fill:#000000;fill-opacity:1;stroke:none;stroke-width:1px;stroke-linecap:butt;stroke-linejoin:miter;stroke-opacity:1"><flowRegion
         id="flowRegion16148"><rect
           id="rect16150"
           width="106.38298"
           height="42.553192"
           x="552.12769"
           y="549.17072" /></flowRegion><flowPara
         id="flowPara16152"
         style="font-size:40px;line-height:1.25">xxdisp</flowPara></flowRoot>    <flowRoot
       transform="matrix(0.9375,0,0,0.9375,329.41135,228.40642)"
       style="font-style:normal;font-variant:normal;font-weight:normal;font-stretch:normal;font-size:56.50266647px;line-height:1.25;font-family:cmr10;-inkscape-font-specification:'cmr10, Normal';font-variant-ligatures:normal;font-variant-caps:normal;font-variant-numeric:normal;font-feature-settings:normal;text-align:center;letter-spacing:0px;word-spacing:0px;writing-mode:lr-tb;text-anchor:middle;fill:#000000;fill-opacity:1;stroke:none"
       id="flowRoot1394"
       xml:space="preserve"><flowRegion
         id="flowRegion1396"><rect
           y="116.63642"
           x="314.03836"
           height="105.03672"
           width="258.30457"
           id="rect1398" /></flowRegion><flowPara
         id="flowPara1400" /></flowRoot>    <g
       id="g1613"
       transform="matrix(1.1,0,0,1.1,-53.131079,-35.910568)">
      <flowRoot
         xml:space="preserve"
         id="flowRoot8773"
         style="font-style:normal;font-variant:normal;font-weight:normal;font-stretch:normal;font-size:4.40959978px;line-height:1.25;font-family:'TeX Gyre Pagella Math';-inkscape-font-specification:'TeX Gyre Pagella Math, Normal';font-variant-ligatures:normal;font-variant-caps:normal;font-variant-numeric:normal;text-align:center;letter-spacing:0px;word-spacing:0px;writing-mode:lr-tb;text-anchor:middle;fill:#ffffff;fill-opacity:1;stroke:none"
         transform="matrix(0.31960232,0,0,0.31960232,363.61883,315.11747)"><flowRegion
           style="fill:#ffffff"
           id="flowRegion8769"><rect
             style="fill:#ffffff"
             id="rect8767"
             width="154.94878"
             height="78.453178"
             x="224.46808"
             y="-21.89521" /></flowRegion><flowPara
           id="flowPara8771"
           style="font-size:28.44444466px;line-height:1;fill:#ffffff">correlation</flowPara><flowPara
           style="font-size:28.44444466px;line-height:1;fill:#ffffff"
           id="flowPara8775">window</flowPara></flowRoot>      <image
         sodipodi:absref="/home/3S-LAB/ostamati/Documents/imageAnalysis/DIC/clients/testTransformation/PierreCOx/docs/0.7_nTX_COx_02-01-bin4-s123.png"
         y="264.11902"
         x="309.37381"
         id="image1340"
         xlink:href="file:///home/3S-LAB/ostamati/Documents/imageAnalysis/DIC/clients/testTransformation/PierreCOx/docs/0.7_nTX_COx_02-01-bin4-s123.png"
         style="image-rendering:optimizeQuality"
         preserveAspectRatio="none"
         height="170.45457"
         width="170.45457" />
      <image
         sodipodi:absref="/home/3S-LAB/ostamati/Documents/imageAnalysis/DIC/clients/testTransformation/PierreCOx/docs/0.7_nTX_COx_02-04-bin4-s123.png"
         y="264.11902"
         x="488.28238"
         id="image1351"
         xlink:href="file:///home/3S-LAB/ostamati/Documents/imageAnalysis/DIC/clients/testTransformation/PierreCOx/docs/0.7_nTX_COx_02-04-bin4-s123.png"
         style="image-rendering:optimizeQuality"
         preserveAspectRatio="none"
         height="170.45457"
         width="170.45457" />
      <flowRoot
         xml:space="preserve"
         id="flowRoot1388"
         style="font-style:normal;font-variant:normal;font-weight:500;font-stretch:normal;font-size:13.33333302px;line-height:1.25;font-family:'CMU Serif';-inkscape-font-specification:'CMU Serif, Medium';font-variant-ligatures:normal;font-variant-caps:normal;font-variant-numeric:normal;font-feature-settings:normal;text-align:center;letter-spacing:0px;word-spacing:0px;writing-mode:lr-tb;text-anchor:middle;fill:#000000;fill-opacity:1;stroke:none"
         transform="matrix(0.6392046,0,0,0.6392046,627.6371,48.876178)"><flowRegion
           id="flowRegion1384"><rect
             id="rect1382"
             width="307.85715"
             height="140"
             x="42.857143"
             y="315.80991" /></flowRegion><flowPara
           id="flowPara1386"
           style="font-style:normal;font-variant:normal;font-weight:normal;font-stretch:normal;font-size:19.55555563px;font-family:'TeX Gyre Pagella Math';-inkscape-font-specification:'TeX Gyre Pagella Math'">im1 - im2</flowPara></flowRoot>      <image
         sodipodi:absref="/home/3S-LAB/ostamati/Documents/imageAnalysis/DIC/clients/testTransformation/PierreCOx/docs/0.7_nTX_COx_02-01-04-bin4-s123-Diff.png"
         y="264.11902"
         x="668.14014"
         id="image1362"
         xlink:href="file:///home/3S-LAB/ostamati/Documents/imageAnalysis/DIC/clients/testTransformation/PierreCOx/docs/0.7_nTX_COx_02-01-04-bin4-s123-Diff.png"
         style="image-rendering:optimizeQuality"
         preserveAspectRatio="none"
         height="170.45457"
         width="170.45457" />
      <flowRoot
         transform="matrix(0.63920461,0,0,0.63920461,447.79181,239.3)"
         style="font-style:normal;font-variant:normal;font-weight:500;font-stretch:normal;font-size:13.33333302px;line-height:1.25;font-family:'CMU Serif';-inkscape-font-specification:'CMU Serif, Medium';font-variant-ligatures:normal;font-variant-caps:normal;font-variant-numeric:normal;font-feature-settings:normal;text-align:center;letter-spacing:0px;word-spacing:0px;writing-mode:lr-tb;text-anchor:middle;fill:#000000;fill-opacity:1;stroke:none"
         id="flowRoot1860-8"
         xml:space="preserve"><flowRegion
           id="flowRegion1856-6"><rect
             y="315.80991"
             x="42.857143"
             height="140"
             width="307.85715"
             id="rect1854-2" /></flowRegion><flowPara
           style="font-style:normal;font-variant:normal;font-weight:normal;font-stretch:normal;font-size:19.55555534px;font-family:'TeX Gyre Pagella Math';-inkscape-font-specification:'TeX Gyre Pagella Math'"
           id="flowPara1858-8">im2</flowPara></flowRoot>      <flowRoot
         xml:space="preserve"
         id="flowRoot8773-4"
         style="font-style:normal;font-variant:normal;font-weight:normal;font-stretch:normal;font-size:4.40959978px;line-height:1.25;font-family:'TeX Gyre Pagella Math';-inkscape-font-specification:'TeX Gyre Pagella Math, Normal';font-variant-ligatures:normal;font-variant-caps:normal;font-variant-numeric:normal;text-align:center;letter-spacing:0px;word-spacing:0px;writing-mode:lr-tb;text-anchor:middle;fill:#ffffff;fill-opacity:1;stroke:none"
         transform="matrix(0.31960232,0,0,0.31960232,361.32162,506.78473)"><flowRegion
           style="fill:#ffffff"
           id="flowRegion8769-7"><rect
             style="fill:#ffffff"
             id="rect8767-2"
             width="154.94878"
             height="78.453178"
             x="224.46808"
             y="-21.89521" /></flowRegion><flowPara
           id="flowPara8771-4"
           style="font-size:28.44444466px;line-height:1;fill:#ffffff">correlation</flowPara><flowPara
           style="font-size:28.44444466px;line-height:1;fill:#ffffff"
           id="flowPara8775-0">window</flowPara></flowRoot>      <image
         sodipodi:absref="/home/3S-LAB/ostamati/Documents/imageAnalysis/DIC/clients/testTransformation/PierreCOx/docs/0.7_nTX_COx_02-04-bin4-s123.png"
         y="454.08167"
         x="488.28238"
         id="image1351-6"
         xlink:href="file:///home/3S-LAB/ostamati/Documents/imageAnalysis/DIC/clients/testTransformation/PierreCOx/docs/0.7_nTX_COx_02-04-bin4-s123.png"
         style="image-rendering:optimizeQuality"
         preserveAspectRatio="none"
         height="170.45457"
         width="170.45457" />
      <flowRoot
         transform="matrix(0.70312511,0,0,0.70312511,256.8535,217.44056)"
         style="font-style:normal;font-variant:normal;font-weight:500;font-stretch:normal;font-size:13.33333302px;line-height:1.25;font-family:'CMU Serif';-inkscape-font-specification:'CMU Serif, Medium';font-variant-ligatures:normal;font-variant-caps:normal;font-variant-numeric:normal;font-feature-settings:normal;text-align:center;letter-spacing:0px;word-spacing:0px;writing-mode:lr-tb;text-anchor:middle;fill:#000000;fill-opacity:1;stroke:none"
         id="flowRoot1356-4"
         xml:space="preserve"><flowRegion
           id="flowRegion1352-8"><rect
             y="315.80991"
             x="42.857143"
             height="140"
             width="307.85715"
             id="rect1350-7" /></flowRegion><flowPara
           style="font-style:normal;font-variant:normal;font-weight:normal;font-stretch:normal;font-size:17.77777672px;font-family:'TeX Gyre Pagella Math';-inkscape-font-specification:'TeX Gyre Pagella Math'"
           id="flowPara1354-1">im1(Φ<flowSpan
   style="font-size:14.54545403px;baseline-shift:sub"
   id="flowSpan1354">field</flowSpan>)</flowPara></flowRoot>      <image
         sodipodi:absref="/home/3S-LAB/ostamati/Documents/imageAnalysis/DIC/clients/testTransformation/PierreCOx/docs/0.7_nTX_COx_02-01-bin4-psFiltRS-pfb025-def-triang-s123.png"
         y="454.08167"
         x="309.37381"
         id="image1376"
         xlink:href="file:///home/3S-LAB/ostamati/Documents/imageAnalysis/DIC/clients/testTransformation/PierreCOx/docs/0.7_nTX_COx_02-01-bin4-psFiltRS-pfb025-def-triang-s123.png"
         style="image-rendering:optimizeQuality"
         preserveAspectRatio="none"
         height="170.45457"
         width="170.45457" />
      <image
         sodipodi:absref="/home/3S-LAB/ostamati/Documents/imageAnalysis/DIC/clients/testTransformation/PierreCOx/docs/0.7_nTX_COx_02-01-bin4-psFiltRS-pfb025-def-triang-Diff-s123.png"
         y="454.08167"
         x="668.14014"
         id="image1387"
         xlink:href="file:///home/3S-LAB/ostamati/Documents/imageAnalysis/DIC/clients/testTransformation/PierreCOx/docs/0.7_nTX_COx_02-01-bin4-psFiltRS-pfb025-def-triang-Diff-s123.png"
         style="image-rendering:optimizeQuality"
         preserveAspectRatio="none"
         height="170.45457"
         width="170.45457" />
      <flowRoot
         xml:space="preserve"
         id="flowRoot1388-2"
         style="font-style:normal;font-variant:normal;font-weight:500;font-stretch:normal;font-size:13.33333302px;line-height:1.25;font-family:'CMU Serif';-inkscape-font-specification:'CMU Serif, Medium';font-variant-ligatures:normal;font-variant-caps:normal;font-variant-numeric:normal;font-feature-settings:normal;text-align:center;letter-spacing:0px;word-spacing:0px;writing-mode:lr-tb;text-anchor:middle;fill:#000000;fill-opacity:1;stroke:none"
         transform="matrix(0.70312511,0,0,0.70312511,615.0709,217.44056)"><flowRegion
           id="flowRegion1384-9"><rect
             id="rect1382-9"
             width="307.85715"
             height="140"
             x="42.857143"
             y="315.80991" /></flowRegion><flowPara
           id="flowPara1386-0"
           style="font-style:normal;font-variant:normal;font-weight:normal;font-stretch:normal;font-size:17.77777672px;font-family:'TeX Gyre Pagella Math';-inkscape-font-specification:'TeX Gyre Pagella Math'">im1(Φ<flowSpan
   style="font-size:14.54545403px;baseline-shift:sub"
   id="flowSpan1356">field</flowSpan>) - im2</flowPara></flowRoot>      <flowRoot
         xml:space="preserve"
         id="flowRoot1477"
         style="font-style:normal;font-variant:normal;font-weight:500;font-stretch:normal;font-size:13.33333302px;line-height:1.25;font-family:'CMU Serif';-inkscape-font-specification:'CMU Serif, Medium';font-variant-ligatures:normal;font-variant-caps:normal;font-variant-numeric:normal;font-feature-settings:normal;text-align:center;letter-spacing:0px;word-spacing:0px;writing-mode:lr-tb;text-anchor:middle;fill:#000000;fill-opacity:1;stroke:none"
         transform="matrix(0.63920461,0,0,0.63920461,445.4818,48.390861)"><flowRegion
           id="flowRegion1473"><rect
             id="rect1471"
             width="307.85715"
             height="140"
             x="42.857143"
             y="315.80991" /></flowRegion><flowPara
           id="flowPara1475"
           style="font-style:normal;font-variant:normal;font-weight:normal;font-stretch:normal;font-size:19.55555533px;font-family:'TeX Gyre Pagella Math';-inkscape-font-specification:'TeX Gyre Pagella Math'">im2</flowPara></flowRoot>      <flowRoot
         transform="matrix(0.63920461,0,0,0.63920461,266.50405,48.390861)"
         style="font-style:normal;font-variant:normal;font-weight:500;font-stretch:normal;font-size:13.33333302px;line-height:1.25;font-family:'CMU Serif';-inkscape-font-specification:'CMU Serif, Medium';font-variant-ligatures:normal;font-variant-caps:normal;font-variant-numeric:normal;font-feature-settings:normal;text-align:center;letter-spacing:0px;word-spacing:0px;writing-mode:lr-tb;text-anchor:middle;fill:#000000;fill-opacity:1;stroke:none"
         id="flowRoot1485"
         xml:space="preserve"><flowRegion
           id="flowRegion1481"><rect
             y="315.80991"
             x="42.857143"
             height="140"
             width="307.85715"
             id="rect1479" /></flowRegion><flowPara
           style="font-style:normal;font-variant:normal;font-weight:normal;font-stretch:normal;font-size:19.55555533px;font-family:'TeX Gyre Pagella Math';-inkscape-font-specification:'TeX Gyre Pagella Math'"
           id="flowPara1483">im1</flowPara></flowRoot>    </g>
  </g>
</svg>
